lab10/pr_divmod/wave.vcd
$version Generated by VerilatedVcd $end
$timescale 1ps $end
 $scope module TOP $end
  $var wire 1 ( clk $end
  $var wire 1 ) rst_n $end
  $var wire 1 * valid $end
  $var wire 8 + dividend [7:0] $end
  $var wire 8 , divisor [7:0] $end
  $var wire 1 - ready $end
  $var wire 8 . quotient [7:0] $end
  $var wire 8 / remainder [7:0] $end
  $scope module divmod $end
   $var wire 1 ( clk $end
   $var wire 1 ) rst_n $end
   $var wire 1 * valid $end
   $var wire 8 + dividend [7:0] $end
   $var wire 8 , divisor [7:0] $end
   $var wire 1 - ready $end
   $var wire 8 . quotient [7:0] $end
   $var wire 8 / remainder [7:0] $end
   $var wire 32 3 IDLE [31:0] $end
   $var wire 32 4 BUSY [31:0] $end
   $var wire 32 5 OUT [31:0] $end
   $var wire 2 # S [1:0] $end
   $var wire 2 0 S_nxt [1:0] $end
   $var wire 8 $ a [7:0] $end
   $var wire 8 1 a_nxt [7:0] $end
   $var wire 8 % b [7:0] $end
   $var wire 8 2 b_nxt [7:0] $end
   $var wire 8 & q [7:0] $end
   $var wire 8 ' q_nxt [7:0] $end
  $upscope $end
 $upscope $end
$enddefinitions $end


#5
b00 #
b00000000 $
b00000000 %
b00000000 &
b00000000 '
0(
0)
0*
b00000000 +
b00000000 ,
0-
b00000000 .
b00000000 /
b00 0
b00000000 1
b00000000 2
b00000000000000000000000000000000 3
b00000000000000000000000000000001 4
b00000000000000000000000000000010 5
#10
#15
#20
1(
#25
0(
#30
1(
#35
0(
1)
#40
1(
#45
0(
1*
b00001000 +
b00000010 ,
b01 0
b00001000 1
b00000010 2
#50
b01 #
b00001000 $
b00000010 %
b00000001 '
1(
b00000110 1
#55
0(
0*
b00000000 +
b00000000 ,
#60
b00000110 $
b00000001 &
b00000010 '
1(
b00000100 1
#65
0(
#70
b00000100 $
b00000010 &
b00000011 '
1(
b00000010 1
#75
0(
#80
b00000010 $
b00000011 &
b00000100 '
1(
b00000000 1
#85
0(
#90
b00000000 $
b00000100 &
1(
b10 0
#95
0(
#100
b10 #
1(
1-
b00000100 .
b00 0
#105
0(
#110
b00 #
b00000000 '
1(
0-
b00000000 .
#115
0(
#120
b00000000 &
1(
#125
0(
#130
1(
#135
0(
#140
1(
#145
0(
#150
1(
#155
0(
#160
1(
#165
0(
#170
1(
#175
0(
#180
1(
#185
0(
#190
1(
#195
0(
#200
1(
#205
b00000000 %
0(
0)
b00000000 2
#215
#225
#235
#245
#250
1)
1*
b00010011 +
b00000011 ,
b01 0
b00010011 1
b00000011 2
#255
b01 #
b00010011 $
b00000011 %
b00000001 '
1(
b00010000 1
#260
0(
0*
b00000000 +
b00000000 ,
#265
b00010000 $
b00000001 &
b00000010 '
1(
b00001101 1
#270
0(
#275
b00001101 $
b00000010 &
b00000011 '
1(
b00001010 1
#280
0(
#285
b00001010 $
b00000011 &
b00000100 '
1(
b00000111 1
#290
0(
#295
b00000111 $
b00000100 &
b00000101 '
1(
b00000100 1
#300
0(
#305
b00000100 $
b00000101 &
b00000110 '
1(
b00000001 1
#310
0(
#315
b00000001 $
b00000110 &
1(
b10 0
#320
0(
#325
b10 #
1(
1-
b00000110 .
b00000001 /
b00 0
#330
0(
#335
b00 #
b00000000 '
1(
0-
b00000000 .
b00000000 /
#340
0(
#345
b00000000 &
1(
#350
0(
#355
1(
#360
0(
#365
1(
#370
0(
#375
1(
#380
0(
#385
1(
#390
0(
#395
1(
#400
0(
#405
1(
#410
0(
#415
1(
#420
0(
#425
1(
#430
b00000000 $
b00000000 %
0(
0)
b00000000 1
b00000000 2
#440
#450
#460
#470
#475
1)
1*
b00000010 +
b00000101 ,
b01 0
b00000010 1
b00000101 2
#480
b01 #
b00000010 $
b00000101 %
1(
b10 0
#485
0(
0*
b00000000 +
b00000000 ,
#490
b10 #
1(
1-
b00000010 /
b00 0
#495
0(
#500
b00 #
1(
0-
b00000000 /
#505
0(
#510
1(
#515
0(
#520
1(
#525
0(
#530
1(
#535
0(
#540
1(
#545
0(
#550
1(
#555
0(
#560
1(
#565
0(
#570
1(
#575
0(
#580
1(
#585
0(
#590
1(
#595
b00000000 $
b00000000 %
0(
0)
b00000000 1
b00000000 2
#605
#615
#625
#635
#640
1)
1*
b01001101 +
b00001000 ,
b01 0
b01001101 1
b00001000 2
#645
b01 #
b01001101 $
b00001000 %
b00000001 '
1(
b01000101 1
#650
0(
0*
b00000000 +
b00000000 ,
#655
b01000101 $
b00000001 &
b00000010 '
1(
b00111101 1
#660
0(
#665
b00111101 $
b00000010 &
b00000011 '
1(
b00110101 1
#670
0(
#675
b00110101 $
b00000011 &
b00000100 '
1(
b00101101 1
#680
0(
#685
b00101101 $
b00000100 &
b00000101 '
1(
b00100101 1
#690
0(
#695
b00100101 $
b00000101 &
b00000110 '
1(
b00011101 1
#700
0(
#705
b00011101 $
b00000110 &
b00000111 '
1(
b00010101 1
#710
0(
#715
b00010101 $
b00000111 &
b00001000 '
1(
b00001101 1
#720
0(
#725
b00001101 $
b00001000 &
b00001001 '
1(
b00000101 1
#730
0(
#735
b00000101 $
b00001001 &
1(
b10 0
#740
0(
#745
b10 #
1(
1-
b00001001 .
b00000101 /
b00 0
#750
0(
#755
b00 #
b00000000 '
1(
0-
b00000000 .
b00000000 /
#760
0(
#765
b00000000 &
1(
#770
0(
#775
1(
#780
0(
#785
1(
#790
0(
#795
1(
#800
0(
#805
1(
#810
0(
#815
1(
#820
0(
#825
1(
#830
0(
#835
1(
#840
0(
#845
1(
#850
b00000000 $
b00000000 %
0(
0)
b00000000 1
b00000000 2
#860
#870
#880
#890
#895
1)
1*
b01111111 +
b00000001 ,
b01 0
b01111111 1
b00000001 2
#900
b01 #
b01111111 $
b00000001 %
b00000001 '
1(
b01111110 1
#905
0(
0*
b00000000 +
b00000000 ,
#910
b01111110 $
b00000001 &
b00000010 '
1(
b01111101 1
#915
0(
#920
b01111101 $
b00000010 &
b00000011 '
1(
b01111100 1
#925
0(
#930
b01111100 $
b00000011 &
b00000100 '
1(
b01111011 1
#935
0(
#940
b01111011 $
b00000100 &
b00000101 '
1(
b01111010 1
#945
0(
#950
b01111010 $
b00000101 &
b00000110 '
1(
b01111001 1
#955
0(
#960
b01111001 $
b00000110 &
b00000111 '
1(
b01111000 1
#965
0(
#970
b01111000 $
b00000111 &
b00001000 '
1(
b01110111 1
#975
0(
#980
b01110111 $
b00001000 &
b00001001 '
1(
b01110110 1
#985
0(
#990
b01110110 $
b00001001 &
b00001010 '
1(
b01110101 1
#995
0(
#1000
b01110101 $
b00001010 &
b00001011 '
1(
b01110100 1
#1005
0(
#1010
b01110100 $
b00001011 &
b00001100 '
1(
b01110011 1
#1015
0(
#1020
b01110011 $
b00001100 &
b00001101 '
1(
b01110010 1
#1025
0(
#1030
b01110010 $
b00001101 &
b00001110 '
1(
b01110001 1
#1035
0(
#1040
b01110001 $
b00001110 &
b00001111 '
1(
b01110000 1
#1045
0(
#1050
b01110000 $
b00001111 &
b00010000 '
1(
b01101111 1
#1055
0(
#1060
b01101111 $
b00010000 &
b00010001 '
1(
b01101110 1
#1065
0(
#1070
b01101110 $
b00010001 &
b00010010 '
1(
b01101101 1
#1075
0(
#1080
b01101101 $
b00010010 &
b00010011 '
1(
b01101100 1
#1085
0(
#1090
b01101100 $
b00010011 &
b00010100 '
1(
b01101011 1
#1095
0(
#1100
b01101011 $
b00010100 &
b00010101 '
1(
b01101010 1
#1105
0(
#1110
b01101010 $
b00010101 &
b00010110 '
1(
b01101001 1
#1115
0(
#1120
b01101001 $
b00010110 &
b00010111 '
1(
b01101000 1
#1125
0(
#1130
b01101000 $
b00010111 &
b00011000 '
1(
b01100111 1
#1135
0(
#1140
b01100111 $
b00011000 &
b00011001 '
1(
b01100110 1
#1145
0(
#1150
b01100110 $
b00011001 &
b00011010 '
1(
b01100101 1
#1155
0(
#1160
b01100101 $
b00011010 &
b00011011 '
1(
b01100100 1
#1165
0(
#1170
b01100100 $
b00011011 &
b00011100 '
1(
b01100011 1
#1175
0(
#1180
b01100011 $
b00011100 &
b00011101 '
1(
b01100010 1
#1185
0(
#1190
b01100010 $
b00011101 &
b00011110 '
1(
b01100001 1
#1195
0(
#1200
b01100001 $
b00011110 &
b00011111 '
1(
b01100000 1
#1205
0(
#1210
b01100000 $
b00011111 &
b00100000 '
1(
b01011111 1
#1215
0(
#1220
b01011111 $
b00100000 &
b00100001 '
1(
b01011110 1
#1225
0(
#1230
b01011110 $
b00100001 &
b00100010 '
1(
b01011101 1
#1235
0(
#1240
b01011101 $
b00100010 &
b00100011 '
1(
b01011100 1
#1245
0(
#1250
b01011100 $
b00100011 &
b00100100 '
1(
b01011011 1
#1255
0(
#1260
b01011011 $
b00100100 &
b00100101 '
1(
b01011010 1
#1265
0(
#1270
b01011010 $
b00100101 &
b00100110 '
1(
b01011001 1
#1275
0(
#1280
b01011001 $
b00100110 &
b00100111 '
1(
b01011000 1
#1285
0(
#1290
b01011000 $
b00100111 &
b00101000 '
1(
b01010111 1
#1295
0(
#1300
b01010111 $
b00101000 &
b00101001 '
1(
b01010110 1
#1305
0(
#1310
b01010110 $
b00101001 &
b00101010 '
1(
b01010101 1
#1315
0(
#1320
b01010101 $
b00101010 &
b00101011 '
1(
b01010100 1
#1325
0(
#1330
b01010100 $
b00101011 &
b00101100 '
1(
b01010011 1
#1335
0(
#1340
b01010011 $
b00101100 &
b00101101 '
1(
b01010010 1
#1345
0(
#1350
b01010010 $
b00101101 &
b00101110 '
1(
b01010001 1
#1355
0(
#1360
b01010001 $
b00101110 &
b00101111 '
1(
b01010000 1
#1365
0(
#1370
b01010000 $
b00101111 &
b00110000 '
1(
b01001111 1
#1375
0(
#1380
b01001111 $
b00110000 &
b00110001 '
1(
b01001110 1
#1385
0(
#1390
b01001110 $
b00110001 &
b00110010 '
1(
b01001101 1
#1395
0(
#1400
b01001101 $
b00110010 &
b00110011 '
1(
b01001100 1
#1405
0(
#1410
b01001100 $
b00110011 &
b00110100 '
1(
b01001011 1
#1415
0(
#1420
b01001011 $
b00110100 &
b00110101 '
1(
b01001010 1
#1425
0(
#1430
b01001010 $
b00110101 &
b00110110 '
1(
b01001001 1
#1435
0(
#1440
b01001001 $
b00110110 &
b00110111 '
1(
b01001000 1
#1445
0(
#1450
b01001000 $
b00110111 &
b00111000 '
1(
b01000111 1
#1455
0(
#1460
b01000111 $
b00111000 &
b00111001 '
1(
b01000110 1
#1465
0(
#1470
b01000110 $
b00111001 &
b00111010 '
1(
b01000101 1
#1475
0(
#1480
b01000101 $
b00111010 &
b00111011 '
1(
b01000100 1
#1485
0(
#1490
b01000100 $
b00111011 &
b00111100 '
1(
b01000011 1
#1495
0(
#1500
b01000011 $
b00111100 &
b00111101 '
1(
b01000010 1
#1505
0(
#1510
b01000010 $
b00111101 &
b00111110 '
1(
b01000001 1
#1515
0(
#1520
b01000001 $
b00111110 &
b00111111 '
1(
b01000000 1
#1525
0(
#1530
b01000000 $
b00111111 &
b01000000 '
1(
b00111111 1
#1535
0(
#1540
b00111111 $
b01000000 &
b01000001 '
1(
b00111110 1
#1545
0(
#1550
b00111110 $
b01000001 &
b01000010 '
1(
b00111101 1
#1555
0(
#1560
b00111101 $
b01000010 &
b01000011 '
1(
b00111100 1
#1565
0(
#1570
b00111100 $
b01000011 &
b01000100 '
1(
b00111011 1
#1575
0(
#1580
b00111011 $
b01000100 &
b01000101 '
1(
b00111010 1
#1585
0(
#1590
b00111010 $
b01000101 &
b01000110 '
1(
b00111001 1
#1595
0(
#1600
b00111001 $
b01000110 &
b01000111 '
1(
b00111000 1
#1605
0(
#1610
b00111000 $
b01000111 &
b01001000 '
1(
b00110111 1
#1615
0(
#1620
b00110111 $
b01001000 &
b01001001 '
1(
b00110110 1
#1625
0(
#1630
b00110110 $
b01001001 &
b01001010 '
1(
b00110101 1
#1635
0(
#1640
b00110101 $
b01001010 &
b01001011 '
1(
b00110100 1
#1645
0(
#1650
b00110100 $
b01001011 &
b01001100 '
1(
b00110011 1
#1655
0(
#1660
b00110011 $
b01001100 &
b01001101 '
1(
b00110010 1
#1665
0(
#1670
b00110010 $
b01001101 &
b01001110 '
1(
b00110001 1
#1675
0(
#1680
b00110001 $
b01001110 &
b01001111 '
1(
b00110000 1
#1685
0(
#1690
b00110000 $
b01001111 &
b01010000 '
1(
b00101111 1
#1695
0(
#1700
b00101111 $
b01010000 &
b01010001 '
1(
b00101110 1
#1705
0(
#1710
b00101110 $
b01010001 &
b01010010 '
1(
b00101101 1
#1715
0(
#1720
b00101101 $
b01010010 &
b01010011 '
1(
b00101100 1
#1725
0(
#1730
b00101100 $
b01010011 &
b01010100 '
1(
b00101011 1
#1735
0(
#1740
b00101011 $
b01010100 &
b01010101 '
1(
b00101010 1
#1745
0(
#1750
b00101010 $
b01010101 &
b01010110 '
1(
b00101001 1
#1755
0(
#1760
b00101001 $
b01010110 &
b01010111 '
1(
b00101000 1
#1765
0(
#1770
b00101000 $
b01010111 &
b01011000 '
1(
b00100111 1
#1775
0(
#1780
b00100111 $
b01011000 &
b01011001 '
1(
b00100110 1
#1785
0(
#1790
b00100110 $
b01011001 &
b01011010 '
1(
b00100101 1
#1795
0(
#1800
b00100101 $
b01011010 &
b01011011 '
1(
b00100100 1
#1805
0(
#1810
b00100100 $
b01011011 &
b01011100 '
1(
b00100011 1
#1815
0(
#1820
b00100011 $
b01011100 &
b01011101 '
1(
b00100010 1
#1825
0(
#1830
b00100010 $
b01011101 &
b01011110 '
1(
b00100001 1
#1835
0(
#1840
b00100001 $
b01011110 &
b01011111 '
1(
b00100000 1
#1845
0(
#1850
b00100000 $
b01011111 &
b01100000 '
1(
b00011111 1
#1855
0(
#1860
b00011111 $
b01100000 &
b01100001 '
1(
b00011110 1
#1865
0(
#1870
b00011110 $
b01100001 &
b01100010 '
1(
b00011101 1
#1875
0(
#1880
b00011101 $
b01100010 &
b01100011 '
1(
b00011100 1
#1885
0(
#1890
b00011100 $
b01100011 &
b01100100 '
1(
b00011011 1
#1895
0(
#1900
b00011011 $
b01100100 &
b01100101 '
1(
b00011010 1
#1905
0(
#1910
b00011010 $
b01100101 &
b01100110 '
1(
b00011001 1
#1915
0(
#1920
b00011001 $
b01100110 &
b01100111 '
1(
b00011000 1
#1925
0(
#1930
b00011000 $
b01100111 &
b01101000 '
1(
b00010111 1
#1935
0(
#1940
b00010111 $
b01101000 &
b01101001 '
1(
b00010110 1
#1945
0(
#1950
b00010110 $
b01101001 &
b01101010 '
1(
b00010101 1
#1955
0(
#1960
b00010101 $
b01101010 &
b01101011 '
1(
b00010100 1
#1965
0(
#1970
b00010100 $
b01101011 &
b01101100 '
1(
b00010011 1
#1975
0(
#1980
b00010011 $
b01101100 &
b01101101 '
1(
b00010010 1
#1985
0(
#1990
b00010010 $
b01101101 &
b01101110 '
1(
b00010001 1
#1995
0(
#2000
b00010001 $
b01101110 &
b01101111 '
1(
b00010000 1
#2005
0(
#2010
b00010000 $
b01101111 &
b01110000 '
1(
b00001111 1
#2015
0(
#2020
b00001111 $
b01110000 &
b01110001 '
1(
b00001110 1
#2025
0(
#2030
b00001110 $
b01110001 &
b01110010 '
1(
b00001101 1
#2035
0(
#2040
b00001101 $
b01110010 &
b01110011 '
1(
b00001100 1
#2045
0(
#2050
b00001100 $
b01110011 &
b01110100 '
1(
b00001011 1
#2055
0(
#2060
b00001011 $
b01110100 &
b01110101 '
1(
b00001010 1
#2065
0(
#2070
b00001010 $
b01110101 &
b01110110 '
1(
b00001001 1
#2075
0(
#2080
b00001001 $
b01110110 &
b01110111 '
1(
b00001000 1
#2085
0(
#2090
b00001000 $
b01110111 &
b01111000 '
1(
b00000111 1
#2095
0(
#2100
b00000111 $
b01111000 &
b01111001 '
1(
b00000110 1
#2105
0(
#2110
b00000110 $
b01111001 &
b01111010 '
1(
b00000101 1
#2115
0(
#2120
b00000101 $
b01111010 &
b01111011 '
1(
b00000100 1
#2125
0(
#2130
b00000100 $
b01111011 &
b01111100 '
1(
b00000011 1
#2135
0(
#2140
b00000011 $
b01111100 &
b01111101 '
1(
b00000010 1
#2145
0(
#2150
b00000010 $
b01111101 &
b01111110 '
1(
b00000001 1
#2155
0(
#2160
b00000001 $
b01111110 &
b01111111 '
1(
b00000000 1
#2165
0(
#2170
b00000000 $
b01111111 &
1(
b10 0
#2175
0(
#2180
b10 #
1(
1-
b01111111 .
b00 0
#2185
0(
#2190
b00 #
b00000000 '
1(
0-
b00000000 .
#2195
0(
#2200
b00000000 &
1(
#2205
0(
#2210
1(
#2215
0(
#2220
1(
#2225
0(
#2230
1(
#2235
0(
#2240
1(
#2245
0(
#2250
1(
#2255
0(
#2260
1(
#2265
0(
#2270
1(
#2275
0(
#2280
1(
#2285
b00000000 %
0(
0)
b00000000 2
#2295
#2305
#2315
#2325
#2330
1)
1*
b00001001 ,
b01 0
b00001001 2
#2335
b01 #
b00001001 %
1(
b10 0
#2340
0(
0*
b00000000 ,
#2345
b10 #
1(
1-
b00 0
#2350
0(
#2355
b00 #
1(
0-
#2360
0(
#2365
1(
#2370
0(
#2375
1(
#2380
0(
#2385
1(
#2390
0(
#2395
1(
#2400
0(
#2405
1(
#2410
0(
#2415
1(
#2420
0(
#2425
1(
#2430
0(
#2435
1(
#2440
0(
#2445
1(
#2450
b00000000 %
0(
0)
b00000000 2
