lab10/pr_gcd/golden/golden_wave.vcd
$version Generated by VerilatedVcd $end
$timescale 1ps $end
 $scope module TOP $end
  $var wire 1 # clk $end
  $var wire 1 $ rst_n $end
  $var wire 1 % i_ready $end
  $var wire 1 & i_valid $end
  $var wire 8 ' i_a [7:0] $end
  $var wire 8 ( i_b [7:0] $end
  $var wire 1 ) o_ready $end
  $var wire 1 * o_valid $end
  $var wire 8 + o_ans [7:0] $end
  $scope module gcd $end
   $var wire 1 , clk $end
   $var wire 1 - rst_n $end
   $var wire 1 . i_ready $end
   $var wire 1 / i_valid $end
   $var wire 8 0 i_a [7:0] $end
   $var wire 8 1 i_b [7:0] $end
   $var wire 1 2 o_ready $end
   $var wire 1 3 o_valid $end
   $var wire 8 4 o_ans [7:0] $end
   $var wire 32 > IDLE [31:0] $end
   $var wire 32 ? CALC [31:0] $end
   $var wire 32 @ OUT [31:0] $end
   $var wire 1 5 i_ready_nxt $end
   $var wire 1 6 o_valid_nxt $end
   $var wire 8 7 o_ans_nxt [7:0] $end
   $var wire 2 8 S [1:0] $end
   $var wire 2 9 S_nxt [1:0] $end
   $var wire 8 : a [7:0] $end
   $var wire 8 ; a_nxt [7:0] $end
   $var wire 8 < b [7:0] $end
   $var wire 8 = b_nxt [7:0] $end
  $upscope $end
 $upscope $end
$enddefinitions $end


#5
0#
0$
0%
0&
b00000000 '
b00000000 (
0)
0*
b00000000 +
0,
0-
0.
0/
b00000000 0
b00000000 1
02
03
b00000000 4
05
06
b00000000 7
b00 8
b00 9
b00000000 :
b00000000 ;
b00000000 <
b00000000 =
b00000000000000000000000000000000 >
b00000000000000000000000000000001 ?
b00000000000000000000000000000010 @
#10
1#
1%
1,
1.
15
#15
0#
0,
#20
1#
1,
#25
0#
0,
#30
1$
1-
#35
1#
1,
#40
0#
0,
#45
1#
1,
#50
0#
1&
b00001100 '
b00010010 (
1)
0,
1/
b00001100 0
b00010010 1
12
05
b01 9
b00001100 ;
b00010010 =
#55
1#
0%
1,
0.
b01 8
b00001100 :
b00010010 ;
b00010010 <
b00001100 =
#60
0#
0&
b00000000 '
b00000000 (
0,
0/
b00000000 0
b00000000 1
#65
1#
1,
b00010010 :
b00000110 ;
b00001100 <
#70
0#
0,
#75
1#
1,
b00000110 :
b00001100 ;
b00000110 =
#80
0#
0,
#85
1#
1,
b00001100 :
b00000110 ;
b00000110 <
#90
0#
0,
#95
1#
1,
b00000110 :
b00000000 ;
#100
0#
0,
#105
1#
1,
16
b00000110 7
b10 9
b00000000 :
#110
0#
0,
#115
1#
1*
b00000110 +
1,
13
b00000110 4
15
06
b10 8
b00 9
#120
0#
0,
#125
1#
1%
0*
1,
1.
03
b00 8
#130
0#
0,
#135
1#
1,
#140
0#
0,
#150
#160
#170
#180
#185
#190
1#
1,
#195
0#
1&
b00000101 '
b00001111 (
0,
1/
b00000101 0
b00001111 1
05
b01 9
b00000101 ;
b00001111 =
#200
1#
0%
1,
0.
b01 8
b00000101 :
b00001111 ;
b00001111 <
b00000101 =
#205
0#
0&
b00000000 '
b00000000 (
0,
0/
b00000000 0
b00000000 1
#210
1#
1,
b00001111 :
b00001010 ;
b00000101 <
#215
0#
0,
#220
1#
1,
b00001010 :
b00000101 ;
#225
0#
0,
#230
1#
1,
b00000101 :
b00000000 ;
#235
0#
0,
#240
1#
1,
16
b00000101 7
b10 9
b00000000 :
#245
0#
0,
#250
1#
1*
b00000101 +
1,
13
b00000101 4
15
06
b10 8
b00 9
#255
0#
0,
#260
1#
1%
0*
1,
1.
03
b00 8
#265
0#
0,
#270
1#
1,
#275
0#
0,
#285
#295
#305
#315
#320
#325
1#
1,
#330
0#
1&
b00000111 '
b00001101 (
0,
1/
b00000111 0
b00001101 1
05
b01 9
b00000111 ;
b00001101 =
#335
1#
0%
1,
0.
b01 8
b00000111 :
b00001101 ;
b00001101 <
b00000111 =
#340
0#
0&
b00000000 '
b00000000 (
0,
0/
b00000000 0
b00000000 1
#345
1#
1,
b00001101 :
b00000110 ;
b00000111 <
#350
0#
0,
#355
1#
1,
b00000110 :
b00000111 ;
b00000110 =
#360
0#
0,
#365
1#
1,
b00000111 :
b00000001 ;
b00000110 <
#370
0#
0,
#375
1#
1,
b00000001 :
b00000110 ;
b00000001 =
#380
0#
0,
#385
1#
1,
b00000110 :
b00000101 ;
b00000001 <
#390
0#
0,
#395
1#
1,
b00000101 :
b00000100 ;
#400
0#
0,
#405
1#
1,
b00000100 :
b00000011 ;
#410
0#
0,
#415
1#
1,
b00000011 :
b00000010 ;
#420
0#
0,
#425
1#
1,
b00000010 :
b00000001 ;
#430
0#
0,
#435
1#
1,
b00000001 :
b00000000 ;
#440
0#
0,
#445
1#
1,
16
b00000001 7
b10 9
b00000000 :
#450
0#
0,
#455
1#
1*
b00000001 +
1,
13
b00000001 4
15
06
b10 8
b00 9
#460
0#
0,
#465
1#
1%
0*
1,
1.
03
b00 8
#470
0#
0,
#475
1#
1,
#480
0#
0,
#490
#500
#510
#520
#525
#530
1#
1,
#535
0#
1&
b00000010 '
b00011001 (
0,
1/
b00000010 0
b00011001 1
05
b01 9
b00000010 ;
b00011001 =
#540
1#
0%
1,
0.
b01 8
b00000010 :
b00011001 ;
b00011001 <
b00000010 =
#545
0#
0&
b00000000 '
b00000000 (
0,
0/
b00000000 0
b00000000 1
#550
1#
1,
b00011001 :
b00010111 ;
b00000010 <
#555
0#
0,
#560
1#
1,
b00010111 :
b00010101 ;
#565
0#
0,
#570
1#
1,
b00010101 :
b00010011 ;
#575
0#
0,
#580
1#
1,
b00010011 :
b00010001 ;
#585
0#
0,
#590
1#
1,
b00010001 :
b00001111 ;
#595
0#
0,
#600
1#
1,
b00001111 :
b00001101 ;
#605
0#
0,
#610
1#
1,
b00001101 :
b00001011 ;
#615
0#
0,
#620
1#
1,
b00001011 :
b00001001 ;
#625
0#
0,
#630
1#
1,
b00001001 :
b00000111 ;
#635
0#
0,
#640
1#
1,
b00000111 :
b00000101 ;
#645
0#
0,
#650
1#
1,
b00000101 :
b00000011 ;
#655
0#
0,
#660
1#
1,
b00000011 :
b00000001 ;
#665
0#
0,
#670
1#
1,
b00000001 :
b00000010 ;
b00000001 =
#675
0#
0,
#680
1#
1,
b00000010 :
b00000001 ;
b00000001 <
#685
0#
0,
#690
1#
1,
b00000001 :
b00000000 ;
#695
0#
0,
#700
1#
1,
16
b10 9
b00000000 :
#705
0#
0,
#710
1#
1*
1,
13
15
06
b10 8
b00 9
#715
0#
0,
#720
1#
1%
0*
1,
1.
03
b00 8
#725
0#
0,
#730
1#
1,
#735
0#
0,
#745
#755
#765
#775
#780
#785
1#
1,
#790
0#
1&
b01100100 '
b00101000 (
0,
1/
b01100100 0
b00101000 1
05
b01 9
b01100100 ;
b00101000 =
#795
1#
0%
1,
0.
b01 8
b01100100 :
b00111100 ;
b00101000 <
#800
0#
0&
b00000000 '
b00000000 (
0,
0/
b00000000 0
b00000000 1
#805
1#
1,
b00111100 :
b00010100 ;
#810
0#
0,
#815
1#
1,
b00010100 :
b00101000 ;
b00010100 =
#820
0#
0,
#825
1#
1,
b00101000 :
b00010100 ;
b00010100 <
#830
0#
0,
#835
1#
1,
b00010100 :
b00000000 ;
#840
0#
0,
#845
1#
1,
16
b00010100 7
b10 9
b00000000 :
#850
0#
0,
#855
1#
1*
b00010100 +
1,
13
b00010100 4
15
06
b10 8
b00 9
#860
0#
0,
#865
1#
1%
0*
1,
1.
03
b00 8
#870
0#
0,
#875
1#
1,
#880
0#
0,
#890
#900
#910
#920
#925
#930
1#
1,
#935
0#
1&
b11111111 '
b11111111 (
0,
1/
b11111111 0
b11111111 1
05
b01 9
b11111111 ;
b11111111 =
#940
1#
0%
1,
0.
b01 8
b11111111 :
b00000000 ;
b11111111 <
#945
0#
0&
b00000000 '
b00000000 (
0,
0/
b00000000 0
b00000000 1
#950
1#
1,
16
b11111111 7
b10 9
b00000000 :
#955
0#
0,
#960
1#
1*
b11111111 +
1,
13
b11111111 4
15
06
b10 8
b00 9
#965
0#
0,
#970
1#
1%
0*
1,
1.
03
b00 8
#975
0#
0,
#980
1#
1,
#985
0#
0,
#995
#1005
#1015
#1025
#1030
#1035
1#
1,
#1040
0#
1&
b00000001 '
b00100001 (
0,
1/
b00000001 0
b00100001 1
05
b01 9
b00000001 ;
b00100001 =
#1045
1#
0%
1,
0.
b01 8
b00000001 :
b00100001 ;
b00100001 <
b00000001 =
#1050
0#
0&
b00000000 '
b00000000 (
0,
0/
b00000000 0
b00000000 1
#1055
1#
1,
b00100001 :
b00100000 ;
b00000001 <
#1060
0#
0,
#1065
1#
1,
b00100000 :
b00011111 ;
#1070
0#
0,
#1075
1#
1,
b00011111 :
b00011110 ;
#1080
0#
0,
#1085
1#
1,
b00011110 :
b00011101 ;
#1090
0#
0,
#1095
1#
1,
b00011101 :
b00011100 ;
#1100
0#
0,
#1105
1#
1,
b00011100 :
b00011011 ;
#1110
0#
0,
#1115
1#
1,
b00011011 :
b00011010 ;
#1120
0#
0,
#1125
1#
1,
b00011010 :
b00011001 ;
#1130
0#
0,
#1135
1#
1,
b00011001 :
b00011000 ;
#1140
0#
0,
#1145
1#
1,
b00011000 :
b00010111 ;
#1150
0#
0,
#1155
1#
1,
b00010111 :
b00010110 ;
#1160
0#
0,
#1165
1#
1,
b00010110 :
b00010101 ;
#1170
0#
0,
#1175
1#
1,
b00010101 :
b00010100 ;
#1180
0#
0,
#1185
1#
1,
b00010100 :
b00010011 ;
#1190
0#
0,
#1195
1#
1,
b00010011 :
b00010010 ;
#1200
0#
0,
#1205
1#
1,
b00010010 :
b00010001 ;
#1210
0#
0,
#1215
1#
1,
b00010001 :
b00010000 ;
#1220
0#
0,
#1225
1#
1,
b00010000 :
b00001111 ;
#1230
0#
0,
#1235
1#
1,
b00001111 :
b00001110 ;
#1240
0#
0,
#1245
1#
1,
b00001110 :
b00001101 ;
#1250
0#
0,
#1255
1#
1,
b00001101 :
b00001100 ;
#1260
0#
0,
#1265
1#
1,
b00001100 :
b00001011 ;
#1270
0#
0,
#1275
1#
1,
b00001011 :
b00001010 ;
#1280
0#
0,
#1285
1#
1,
b00001010 :
b00001001 ;
#1290
0#
0,
#1295
1#
1,
b00001001 :
b00001000 ;
#1300
0#
0,
#1305
1#
1,
b00001000 :
b00000111 ;
#1310
0#
0,
#1315
1#
1,
b00000111 :
b00000110 ;
#1320
0#
0,
#1325
1#
1,
b00000110 :
b00000101 ;
#1330
0#
0,
#1335
1#
1,
b00000101 :
b00000100 ;
#1340
0#
0,
#1345
1#
1,
b00000100 :
b00000011 ;
#1350
0#
0,
#1355
1#
1,
b00000011 :
b00000010 ;
#1360
0#
0,
#1365
1#
1,
b00000010 :
b00000001 ;
#1370
0#
0,
#1375
1#
1,
b00000001 :
b00000000 ;
#1380
0#
0,
#1385
1#
1,
16
b00000001 7
b10 9
b00000000 :
#1390
0#
0,
#1395
1#
1*
b00000001 +
1,
13
b00000001 4
15
06
b10 8
b00 9
#1400
0#
0,
#1405
1#
1%
0*
1,
1.
03
b00 8
#1410
0#
0,
#1415
1#
1,
#1420
0#
0,
#1430
#1440
#1450
#1460
#1465
#1470
1#
1,
#1475
0#
1&
b00100001 '
b00000001 (
0,
1/
b00100001 0
b00000001 1
05
b01 9
b00100001 ;
#1480
1#
0%
1,
0.
b01 8
b00100001 :
b00100000 ;
#1485
0#
0&
b00000000 '
b00000000 (
0,
0/
b00000000 0
b00000000 1
#1490
1#
1,
b00100000 :
b00011111 ;
#1495
0#
0,
#1500
1#
1,
b00011111 :
b00011110 ;
#1505
0#
0,
#1510
1#
1,
b00011110 :
b00011101 ;
#1515
0#
0,
#1520
1#
1,
b00011101 :
b00011100 ;
#1525
0#
0,
#1530
1#
1,
b00011100 :
b00011011 ;
#1535
0#
0,
#1540
1#
1,
b00011011 :
b00011010 ;
#1545
0#
0,
#1550
1#
1,
b00011010 :
b00011001 ;
#1555
0#
0,
#1560
1#
1,
b00011001 :
b00011000 ;
#1565
0#
0,
#1570
1#
1,
b00011000 :
b00010111 ;
#1575
0#
0,
#1580
1#
1,
b00010111 :
b00010110 ;
#1585
0#
0,
#1590
1#
1,
b00010110 :
b00010101 ;
#1595
0#
0,
#1600
1#
1,
b00010101 :
b00010100 ;
#1605
0#
0,
#1610
1#
1,
b00010100 :
b00010011 ;
#1615
0#
0,
#1620
1#
1,
b00010011 :
b00010010 ;
#1625
0#
0,
#1630
1#
1,
b00010010 :
b00010001 ;
#1635
0#
0,
#1640
1#
1,
b00010001 :
b00010000 ;
#1645
0#
0,
#1650
1#
1,
b00010000 :
b00001111 ;
#1655
0#
0,
#1660
1#
1,
b00001111 :
b00001110 ;
#1665
0#
0,
#1670
1#
1,
b00001110 :
b00001101 ;
#1675
0#
0,
#1680
1#
1,
b00001101 :
b00001100 ;
#1685
0#
0,
#1690
1#
1,
b00001100 :
b00001011 ;
#1695
0#
0,
#1700
1#
1,
b00001011 :
b00001010 ;
#1705
0#
0,
#1710
1#
1,
b00001010 :
b00001001 ;
#1715
0#
0,
#1720
1#
1,
b00001001 :
b00001000 ;
#1725
0#
0,
#1730
1#
1,
b00001000 :
b00000111 ;
#1735
0#
0,
#1740
1#
1,
b00000111 :
b00000110 ;
#1745
0#
0,
#1750
1#
1,
b00000110 :
b00000101 ;
#1755
0#
0,
#1760
1#
1,
b00000101 :
b00000100 ;
#1765
0#
0,
#1770
1#
1,
b00000100 :
b00000011 ;
#1775
0#
0,
#1780
1#
1,
b00000011 :
b00000010 ;
#1785
0#
0,
#1790
1#
1,
b00000010 :
b00000001 ;
#1795
0#
0,
#1800
1#
1,
b00000001 :
b00000000 ;
#1805
0#
0,
#1810
1#
1,
16
b10 9
b00000000 :
#1815
0#
0,
#1820
1#
1*
1,
13
15
06
b10 8
b00 9
#1825
0#
0,
#1830
1#
1%
0*
1,
1.
03
b00 8
#1835
0#
0,
#1840
1#
1,
#1845
0#
0,
#1855
#1865
#1875
#1885
#1890
#1895
1#
1,
#1900
0#
1&
b00100100 '
b00111100 (
0,
1/
b00100100 0
b00111100 1
05
b01 9
b00100100 ;
b00111100 =
#1905
1#
0%
1,
0.
b01 8
b00100100 :
b00111100 ;
b00111100 <
b00100100 =
#1910
0#
0&
b00000000 '
b00000000 (
0,
0/
b00000000 0
b00000000 1
#1915
1#
1,
b00111100 :
b00011000 ;
b00100100 <
#1920
0#
0,
#1925
1#
1,
b00011000 :
b00100100 ;
b00011000 =
#1930
0#
0,
#1935
1#
1,
b00100100 :
b00001100 ;
b00011000 <
#1940
0#
0,
#1945
1#
1,
b00001100 :
b00011000 ;
b00001100 =
#1950
0#
0,
#1955
1#
1,
b00011000 :
b00001100 ;
b00001100 <
#1960
0#
0,
#1965
1#
1,
b00001100 :
b00000000 ;
#1970
0#
0,
#1975
1#
1,
16
b00001100 7
b10 9
b00000000 :
#1980
0#
0,
#1985
1#
1*
b00001100 +
1,
13
b00001100 4
15
06
b10 8
b00 9
#1990
0#
0,
#1995
1#
1%
0*
1,
1.
03
b00 8
#2000
0#
0,
#2005
1#
1,
#2010
0#
0,
#2020
#2030
#2040
#2050
#2055
#2060
1#
1,
#2065
0#
1&
b00101010 '
b00111000 (
0,
1/
b00101010 0
b00111000 1
05
b01 9
b00101010 ;
b00111000 =
#2070
1#
0%
1,
0.
b01 8
b00101010 :
b00111000 ;
b00111000 <
b00101010 =
#2075
0#
0&
b00000000 '
b00000000 (
0,
0/
b00000000 0
b00000000 1
#2080
1#
1,
b00111000 :
b00001110 ;
b00101010 <
#2085
0#
0,
#2090
1#
1,
b00001110 :
b00101010 ;
b00001110 =
#2095
0#
0,
#2100
1#
1,
b00101010 :
b00011100 ;
b00001110 <
#2105
0#
0,
#2110
1#
1,
b00011100 :
b00001110 ;
#2115
0#
0,
#2120
1#
1,
b00001110 :
b00000000 ;
#2125
0#
0,
#2130
1#
1,
16
b00001110 7
b10 9
b00000000 :
#2135
0#
0,
#2140
1#
1*
b00001110 +
1,
13
b00001110 4
15
06
b10 8
b00 9
#2145
0#
0,
#2150
1#
1%
0*
1,
1.
03
b00 8
