lab08/pr_sorter_id/wave.vcd
$version Generated by VerilatedVcd $end
$timescale 1ps $end
 $scope module TOP $end
  $var wire 4 D v0 [3:0] $end
  $var wire 4 E v1 [3:0] $end
  $var wire 4 F v2 [3:0] $end
  $var wire 4 G v3 [3:0] $end
  $var wire 4 H o0 [3:0] $end
  $var wire 4 I o1 [3:0] $end
  $var wire 4 J o2 [3:0] $end
  $var wire 4 K o3 [3:0] $end
  $var wire 2 L o3_id [1:0] $end
  $scope module sorter_id $end
   $var wire 4 D v0 [3:0] $end
   $var wire 4 E v1 [3:0] $end
   $var wire 4 F v2 [3:0] $end
   $var wire 4 G v3 [3:0] $end
   $var wire 4 H o0 [3:0] $end
   $var wire 4 I o1 [3:0] $end
   $var wire 4 J o2 [3:0] $end
   $var wire 4 K o3 [3:0] $end
   $var wire 2 L o3_id [1:0] $end
   $var wire 4 # c0_min [3:0] $end
   $var wire 4 $ c0_max [3:0] $end
   $var wire 4 % c1_min [3:0] $end
   $var wire 4 & c1_max [3:0] $end
   $var wire 4 ' c2_min [3:0] $end
   $var wire 4 ( c3_min [3:0] $end
   $var wire 4 ) c3_max [3:0] $end
   $var wire 4 * c4_min [3:0] $end
   $var wire 4 + c0_min_id [3:0] $end
   $var wire 4 , c0_max_id [3:0] $end
   $var wire 4 - c1_min_id [3:0] $end
   $var wire 4 . c1_max_id [3:0] $end
   $var wire 4 / c2_min_id [3:0] $end
   $var wire 4 0 c3_min_id [3:0] $end
   $var wire 4 1 c3_max_id [3:0] $end
   $var wire 4 2 c4_min_id [3:0] $end
   $scope module c0 $end
    $var wire 4 D a [3:0] $end
    $var wire 4 E b [3:0] $end
    $var wire 2 M a_id [1:0] $end
    $var wire 2 N b_id [1:0] $end
    $var wire 4 # min [3:0] $end
    $var wire 4 $ max [3:0] $end
    $var wire 2 3 min_id [1:0] $end
    $var wire 2 4 max_id [1:0] $end
    $var wire 1 5 a_is_max $end
   $upscope $end
   $scope module c1 $end
    $var wire 4 $ a [3:0] $end
    $var wire 4 F b [3:0] $end
    $var wire 2 4 a_id [1:0] $end
    $var wire 2 O b_id [1:0] $end
    $var wire 4 % min [3:0] $end
    $var wire 4 & max [3:0] $end
    $var wire 2 6 min_id [1:0] $end
    $var wire 2 7 max_id [1:0] $end
    $var wire 1 8 a_is_max $end
   $upscope $end
   $scope module c2 $end
    $var wire 4 & a [3:0] $end
    $var wire 4 G b [3:0] $end
    $var wire 2 7 a_id [1:0] $end
    $var wire 2 P b_id [1:0] $end
    $var wire 4 ' min [3:0] $end
    $var wire 4 K max [3:0] $end
    $var wire 2 9 min_id [1:0] $end
    $var wire 2 L max_id [1:0] $end
    $var wire 1 : a_is_max $end
   $upscope $end
   $scope module c3 $end
    $var wire 4 # a [3:0] $end
    $var wire 4 % b [3:0] $end
    $var wire 2 3 a_id [1:0] $end
    $var wire 2 6 b_id [1:0] $end
    $var wire 4 ( min [3:0] $end
    $var wire 4 ) max [3:0] $end
    $var wire 2 ; min_id [1:0] $end
    $var wire 2 < max_id [1:0] $end
    $var wire 1 = a_is_max $end
   $upscope $end
   $scope module c4 $end
    $var wire 4 ) a [3:0] $end
    $var wire 4 ' b [3:0] $end
    $var wire 2 < a_id [1:0] $end
    $var wire 2 9 b_id [1:0] $end
    $var wire 4 * min [3:0] $end
    $var wire 4 J max [3:0] $end
    $var wire 2 > min_id [1:0] $end
    $var wire 2 ? max_id [1:0] $end
    $var wire 1 @ a_is_max $end
   $upscope $end
   $scope module c5 $end
    $var wire 4 ( a [3:0] $end
    $var wire 4 * b [3:0] $end
    $var wire 2 ; a_id [1:0] $end
    $var wire 2 > b_id [1:0] $end
    $var wire 4 H min [3:0] $end
    $var wire 4 I max [3:0] $end
    $var wire 2 A min_id [1:0] $end
    $var wire 2 B max_id [1:0] $end
    $var wire 1 C a_is_max $end
   $upscope $end
  $upscope $end
 $upscope $end
$enddefinitions $end


#0
b1100 #
b1111 $
b1001 %
b1111 &
b0000 '
b1001 (
b1100 )
b0000 *
b0000 +
b0001 ,
b0010 -
b0001 .
b0011 /
b0010 0
b0000 1
b0011 2
b00 3
b01 4
05
b10 6
b01 7
18
b11 9
1:
b10 ;
b00 <
1=
b11 >
b00 ?
1@
b11 A
b10 B
1C
b1100 D
b1111 E
b1001 F
b0000 G
b0000 H
b1001 I
b1100 J
b1111 K
b01 L
b00 M
b01 N
b10 O
b11 P
#10
b0110 #
b1100 $
b0010 %
b1100 &
b1000 '
b0010 (
b0110 )
b0110 *
b0001 +
b0000 ,
b0000 .
b0001 1
b0001 2
b01 3
b00 4
15
b00 7
b01 <
b01 >
b11 ?
0@
b10 A
b01 B
0C
b0110 E
b0010 F
b1000 G
b0010 H
b0110 I
b1000 J
b1100 K
b00 L
#20
b0100 #
b1010 $
b0101 %
b1010 &
b1010 '
b0100 (
b0101 )
b0101 *
b0000 +
b0001 ,
b0001 .
b0001 /
b0000 0
b0010 1
b0010 2
b00 3
b01 4
05
b01 7
b01 9
0:
b00 ;
b10 <
0=
b10 >
b01 ?
b00 A
b10 B
b0100 D
b1010 E
b0101 F
b1010 G
b0100 H
b0101 I
b1010 J
b1010 K
b11 L
#30
b1000 $
b0110 %
b1000 &
b0000 '
b0110 )
b0000 *
b0011 /
b0011 2
b11 9
1:
b11 >
b10 ?
1@
b11 A
b00 B
1C
b1000 E
b0110 F
b0000 G
b0000 H
b0100 I
b0110 J
b1000 K
b01 L
#40
b0111 #
b1110 $
b0100 %
b1110 &
b1000 '
b0111 )
b0111 *
b0001 +
b0000 ,
b0000 .
b0010 0
b0001 1
b0001 2
b01 3
b00 4
15
b00 7
b10 ;
b01 <
1=
b01 >
b11 ?
0@
b10 A
b01 B
0C
b1110 D
b0111 E
b0100 F
b1000 G
b0100 H
b0111 I
b1000 J
b1110 K
b00 L
#50
b0101 #
b1101 $
b0111 %
b1101 &
b1100 '
b0101 (
b0000 +
b0001 ,
b0001 .
b0000 0
b0010 1
b0010 2
b00 3
b01 4
05
b01 7
b00 ;
b10 <
0=
b10 >
b00 A
b10 B
b0101 D
b1101 E
b0111 F
b1100 G
b0101 H
b1100 J
b1101 K
b01 L
#60
b1001 #
b0010 %
b0100 '
b0010 (
b1001 )
b0100 *
b0010 0
b0000 1
b0011 2
b10 ;
b00 <
1=
b11 >
b00 ?
1@
b10 A
b11 B
b1001 D
b0010 F
b0100 G
b0010 H
b0100 I
b1001 J
#70
b0001 #
b0010 $
b1111 &
b0001 '
b0001 (
b0010 )
b0001 *
b0001 +
b0000 ,
b0000 -
b0010 .
b0001 0
b01 3
b00 4
15
b00 6
b10 7
08
b01 ;
0=
b01 A
b0010 D
b0001 E
b1111 F
b0001 G
b0001 H
b0001 I
b0010 J
b1111 K
b10 L
#80
b0101 #
b1010 $
b0111 %
b1010 &
b0101 (
b0111 )
b0010 -
b0000 .
b0010 1
b10 6
b00 7
18
b10 <
b10 ?
b11 A
b01 B
1C
b1010 D
b0101 E
b0111 F
b0101 I
b0111 J
b1010 K
b00 L
#90
b1011 #
b1111 $
b0100 %
b1111 &
b1001 '
b0100 (
b1011 )
b1001 *
b0010 0
b0001 1
b10 ;
b01 <
1=
b01 ?
b10 A
b11 B
0C
b1111 D
b1011 E
b0100 F
b1001 G
b0100 H
b1001 I
b1011 J
b1111 K
#100
b0000 #
b0000 $
b0000 %
b0000 &
b0000 '
b0000 (
b0000 )
b0000 *
b0000 +
b0001 ,
b0001 -
b0010 .
b0010 /
b0000 0
b0001 2
b00 3
b01 4
05
b01 6
b10 7
08
b10 9
0:
b00 ;
0=
b01 >
b10 ?
0@
b00 A
b01 B
b0000 D
b0000 E
b0000 F
b0000 G
b0000 H
b0000 I
b0000 J
b0000 K
b11 L
#110
b1111 #
b1111 $
b1111 %
b1111 &
b1111 '
b1111 (
b1111 )
b1111 *
b1111 D
b1111 E
b1111 F
b1111 G
b1111 H
b1111 I
b1111 J
b1111 K
#120
b0101 #
b0101 $
b0101 %
b0101 &
b0100 '
b0101 (
b0101 )
b0100 *
b0011 /
b0011 2
b11 9
1:
b11 >
b01 ?
1@
b11 A
b00 B
1C
b0101 D
b0101 E
b0101 F
b0100 G
b0100 H
b0101 I
b0101 J
b0101 K
b10 L
#130
b0001 #
b0010 $
b0010 %
b0010 &
b0010 '
b0001 (
b0010 )
b0010 *
b0010 /
b0001 2
b10 9
0:
b01 >
b10 ?
0@
b00 A
b01 B
0C
b0001 D
b0010 E
b0010 F
b0010 G
b0001 H
b0010 I
b0010 J
b0010 K
b11 L
#140
b0010 #
b0011 $
b0001 %
b0011 &
b0011 '
b0001 +
b0000 ,
b0010 -
b0000 .
b0000 /
b0010 0
b01 3
b00 4
15
b10 6
b00 7
18
b00 9
b10 ;
1=
b00 ?
b10 A
b0011 D
b0001 F
b0011 G
b0011 J
b0011 K
#150
b0111 #
b0111 $
b0101 %
b0111 &
b0111 '
b0101 (
b0111 )
b0111 *
b0000 +
b0001 ,
b0001 .
b0001 /
b0000 1
b0000 2
b00 3
b01 4
05
b01 7
b01 9
b00 <
b00 >
b01 ?
b00 B
b0111 D
b0111 E
b0101 F
b0111 G
b0101 H
b0111 I
b0111 J
b0111 K
#160
b0000 #
b1111 $
b0000 %
b1111 &
b1111 '
b0000 (
b0000 )
b0000 *
b0000 0
b0010 1
b0010 2
b00 ;
b10 <
0=
b10 >
b00 A
b10 B
b0000 D
b1111 E
b0000 F
b1111 G
b0000 H
b0000 I
b1111 J
b1111 K
#170
b1000 #
b1001 $
b1001 %
b1001 &
b0111 '
b1000 (
b1001 )
b0111 *
b0001 +
b0000 ,
b0000 -
b0010 .
b0011 /
b0001 0
b0000 1
b0011 2
b01 3
b00 4
15
b00 6
b10 7
08
b11 9
1:
b01 ;
b00 <
b11 >
b00 ?
1@
b11 A
b01 B
1C
b1001 D
b1000 E
b1001 F
b0111 G
b0111 H
b1000 I
b1001 J
b1001 K
b10 L
#180
b0110 #
b1110 $
b1110 %
b1110 &
b1101 '
b0110 (
b1110 )
b1101 *
b0000 +
b0001 ,
b0001 -
b0000 0
b0001 1
b00 3
b01 4
05
b01 6
b00 ;
b01 <
b01 ?
b00 A
b11 B
0C
b0110 D
b1110 E
b1110 F
b1101 G
b0110 H
b1101 I
b1110 J
b1110 K
#190
b1010 #
b1010 $
b1010 %
b1010 &
b1010 '
b1010 (
b1010 )
b1010 *
b0010 /
b0001 2
b10 9
0:
b01 >
b10 ?
0@
b01 B
b1010 D
b1010 E
b1010 F
b1011 G
b1010 H
b1010 I
b1010 J
b1011 K
b11 L
